…
    ## Rows: 218
    ## Columns: 7
    ## $ station_id   <chr> "05BB001", "05BB001", "05BB001", "05BB001", "05BB001", "0…
    ## $ year         <dbl> 1909, 1910, 1911, 1912, 1913, 1914, 1915, 1916, 1917, 191…
    ## $ extreme_type <chr> "maximum", "maximum", "maximum", "maximum", "maximum", "m…
    ## $ month        <dbl> 7, 6, 6, 8, 6, 6, 6, 6, 6, 6, 6, 7, 6, 6, 6, 7, 5, 7, 6, …
    ## $ day          <dbl> 7, 12, 14, 25, 11, 18, 27, 20, 17, 15, 22, 3, 9, 5, 14, 5…
    ## $ flow         <dbl> 314, 230, 264, 174, 232, 214, 236, 309, 174, 345, 185, 24…
    ## $ sym          <chr> NA, NA, NA, NA, NA, NA, NA, NA, NA, NA, NA, NA, NA, NA, N…

``` r
print(tidy_stat)
```

    ## # A tibble: 218 × 7
    ##    station_id  year extreme_type month   day  flow sym  
    ##    <chr>      <dbl> <chr>        <dbl> <dbl> <dbl> <chr>
    ##  1 05BB001     1909 maximum          7     7   314 <NA> 
    ##  2 05BB001     1910 maximum          6    12   230 <NA> 
    ##  3 05BB001     1911 maximum          6    14   264 <NA> 
    ##  4 05BB001     1912 maximum          8    25   174 <NA> 
    ##  5 05BB001     1913 maximum          6    11   232 <NA> 
    ##  6 05BB001     1914 maximum          6    18   214 <NA> 
    ##  7 05BB001     1915 maximum          6    27   236 <NA> 
    ##  8 05BB001     1916 maximum          6    20   309 <NA> 
    ##  9 05BB001     1917 maximum          6    17   174 <NA> 
    ## 10 05BB001     1918 maximum          6    15   345 <NA> 
    ## # ℹ 208 more rows
…
**The untidy has 15 variables, and the tidy data has 7 variables**

``` r
## Make the data wider 
untidy_flow1 <- flow_sample %>%
  filter(!is.na(flow)) %>% # Remove the rows which has no flow value
  pivot_wider(names_from = month,
              values_from = flow)

# Print the untidy data
print(untidy_flow1)
```

    ## # A tibble: 216 × 15
    ##    station_id  year extreme_type   day sym     `7`   `6`   `8`   `5`   `2`   `3`
    ##    <chr>      <dbl> <chr>        <dbl> <chr> <dbl> <dbl> <dbl> <dbl> <dbl> <dbl>
    ##  1 05BB001     1909 maximum          7 <NA>    314    NA    NA    NA    NA    NA
    ##  2 05BB001     1910 maximum         12 <NA>     NA   230    NA    NA    NA    NA
    ##  3 05BB001     1911 maximum         14 <NA>     NA   264    NA    NA    NA    NA
    ##  4 05BB001     1912 maximum         25 <NA>     NA    NA   174    NA    NA    NA
    ##  5 05BB001     1913 maximum         11 <NA>     NA   232    NA    NA    NA    NA
    ##  6 05BB001     1914 maximum         18 <NA>     NA   214    NA    NA    NA    NA
    ##  7 05BB001     1915 maximum         27 <NA>     NA   236    NA    NA    NA    NA
    ##  8 05BB001     1916 maximum         20 <NA>     NA   309    NA    NA    NA    NA
    ##  9 05BB001     1917 maximum         17 <NA>     NA   174    NA    NA    NA    NA
    ## 10 05BB001     1918 maximum         15 <NA>     NA   345    NA    NA    NA    NA
    ## # ℹ 206 more rows
    ## # ℹ 4 more variables: `11` <dbl>, `1` <dbl>, `4` <dbl>, `12` <dbl>
…
tidy_flow1 <- untidy_flow1 %>%
  pivot_longer(
    cols = -c(station_id, year, extreme_type, day, sym),
    names_to = "month", 
    values_to = "flow",
    values_drop_na = TRUE
  )

# Compare tidy data and original data.

print(tidy_flow1)
```

    ## # A tibble: 216 × 7
    ##    station_id  year extreme_type   day sym   month  flow
    ##    <chr>      <dbl> <chr>        <dbl> <chr> <chr> <dbl>
    ##  1 05BB001     1909 maximum          7 <NA>  7       314
    ##  2 05BB001     1910 maximum         12 <NA>  6       230
    ##  3 05BB001     1911 maximum         14 <NA>  6       264
    ##  4 05BB001     1912 maximum         25 <NA>  8       174
    ##  5 05BB001     1913 maximum         11 <NA>  6       232
    ##  6 05BB001     1914 maximum         18 <NA>  6       214
    ##  7 05BB001     1915 maximum         27 <NA>  6       236
    ##  8 05BB001     1916 maximum         20 <NA>  6       309
    ##  9 05BB001     1917 maximum         17 <NA>  6       174
    ## 10 05BB001     1918 maximum         15 <NA>  6       345
    ## # ℹ 206 more rows

``` r
# original data
original_data <- flow_sample %>%
  filter(!is.na(flow)) 

print(original_data)
```

    ## # A tibble: 216 × 7
    ##    station_id  year extreme_type month   day  flow sym  
    ##    <chr>      <dbl> <chr>        <dbl> <dbl> <dbl> <chr>
    ##  1 05BB001     1909 maximum          7     7   314 <NA> 
    ##  2 05BB001     1910 maximum          6    12   230 <NA> 
    ##  3 05BB001     1911 maximum          6    14   264 <NA> 
    ##  4 05BB001     1912 maximum          8    25   174 <NA> 
    ##  5 05BB001     1913 maximum          6    11   232 <NA> 
    ##  6 05BB001     1914 maximum          6    18   214 <NA> 
    ##  7 05BB001     1915 maximum          6    27   236 <NA> 
    ##  8 05BB001     1916 maximum          6    20   309 <NA> 
    ##  9 05BB001     1917 maximum          6    17   174 <NA> 
    ## 10 05BB001     1918 maximum          6    15   345 <NA> 
    ## # ℹ 206 more rows
…
``` r
## Make the data wider so that categorical variable extreme_type is widened
#into two variables based on it level
# Value comes from the variable flow
untidy_flow2 <- flow_sample %>%
  filter(!is.na(flow)) %>%
  pivot_wider(names_from = extreme_type,
              values_from = flow)

# Print the untidy data
print(untidy_flow2)
```

    ## # A tibble: 216 × 7
    ##    station_id  year month   day sym   maximum minimum
    ##    <chr>      <dbl> <dbl> <dbl> <chr>   <dbl>   <dbl>
    ##  1 05BB001     1909     7     7 <NA>      314      NA
    ##  2 05BB001     1910     6    12 <NA>      230      NA
    ##  3 05BB001     1911     6    14 <NA>      264      NA
    ##  4 05BB001     1912     8    25 <NA>      174      NA
    ##  5 05BB001     1913     6    11 <NA>      232      NA
    ##  6 05BB001     1914     6    18 <NA>      214      NA
    ##  7 05BB001     1915     6    27 <NA>      236      NA
    ##  8 05BB001     1916     6    20 <NA>      309      NA
    ##  9 05BB001     1917     6    17 <NA>      174      NA
    ## 10 05BB001     1918     6    15 <NA>      345      NA
    ## # ℹ 206 more rows
…
tidy_flow2 <- untidy_flow2 %>%
  pivot_longer(
    cols = -c(station_id, year, month, day, sym),
    names_to = "extreme_types", 
    values_to = "flow",
    values_drop_na = TRUE
  )
## Compare the tidy and original data
print(tidy_flow2)
```

    ## # A tibble: 216 × 7
    ##    station_id  year month   day sym   extreme_types  flow
    ##    <chr>      <dbl> <dbl> <dbl> <chr> <chr>         <dbl>
    ##  1 05BB001     1909     7     7 <NA>  maximum         314
    ##  2 05BB001     1910     6    12 <NA>  maximum         230
    ##  3 05BB001     1911     6    14 <NA>  maximum         264
    ##  4 05BB001     1912     8    25 <NA>  maximum         174
    ##  5 05BB001     1913     6    11 <NA>  maximum         232
    ##  6 05BB001     1914     6    18 <NA>  maximum         214
    ##  7 05BB001     1915     6    27 <NA>  maximum         236
    ##  8 05BB001     1916     6    20 <NA>  maximum         309
    ##  9 05BB001     1917     6    17 <NA>  maximum         174
    ## 10 05BB001     1918     6    15 <NA>  maximum         345
    ## # ℹ 206 more rows

``` r
# original data
original_data1 <- flow_sample %>%
filter(!is.na(flow)) 

print(original_data1)
```

    ## # A tibble: 216 × 7
    ##    station_id  year extreme_type month   day  flow sym  
    ##    <chr>      <dbl> <chr>        <dbl> <dbl> <dbl> <chr>
    ##  1 05BB001     1909 maximum          7     7   314 <NA> 
    ##  2 05BB001     1910 maximum          6    12   230 <NA> 
    ##  3 05BB001     1911 maximum          6    14   264 <NA> 
    ##  4 05BB001     1912 maximum          8    25   174 <NA> 
    ##  5 05BB001     1913 maximum          6    11   232 <NA> 
    ##  6 05BB001     1914 maximum          6    18   214 <NA> 
    ##  7 05BB001     1915 maximum          6    27   236 <NA> 
    ##  8 05BB001     1916 maximum          6    20   309 <NA> 
    ##  9 05BB001     1917 maximum          6    17   174 <NA> 
    ## 10 05BB001     1918 maximum          6    15   345 <NA> 
    ## # ℹ 206 more rows
…
print(flow_sample_max_data)
```

    ## # A tibble: 109 × 10
    ## # Groups:   station_id [1]
    ##    station_id  year extreme_type month   day  flow sym    flow2 flow_pattern
    ##    <chr>      <dbl> <chr>        <dbl> <dbl> <dbl> <chr>  <dbl> <fct>       
    ##  1 05BB001     1909 maximum          7     7   314 <NA>  102.   above_mean  
    ##  2 05BB001     1910 maximum          6    12   230 <NA>   17.9  above_mean  
    ##  3 05BB001     1911 maximum          6    14   264 <NA>   51.9  above_mean  
    ##  4 05BB001     1912 maximum          8    25   174 <NA>  -38.1  below_mean  
    ##  5 05BB001     1913 maximum          6    11   232 <NA>   19.9  above_mean  
    ##  6 05BB001     1914 maximum          6    18   214 <NA>    1.93 above_mean  
    ##  7 05BB001     1915 maximum          6    27   236 <NA>   23.9  above_mean  
    ##  8 05BB001     1916 maximum          6    20   309 <NA>   96.9  above_mean  
    ##  9 05BB001     1917 maximum          6    17   174 <NA>  -38.1  below_mean  
    ## 10 05BB001     1918 maximum          6    15   345 <NA>  133.   above_mean  
    ## # ℹ 99 more rows
    ## # ℹ 1 more variable: decade <chr>
…
  mutate(flow2 = flow-mean(flow), flow_pattern = factor(ifelse(flow > mean(flow), "above_mean", "below_mean"), levels=c("above_mean", "below_mean")), decade = case_when(year < 2020 & year >=2010~ "D11",
     year < 2010 & year>= 2000~ "D10",
     year < 2000 & year>= 1990 ~ "D9",
     year <1990 & year >=1980 ~"D8",
     year <1980 & year >=1970 ~ "D7",
     year < 1970 & year>=1960 ~"D6",
     year < 1960 & year>=1950 ~ "D5",
     year< 1950 & year >=1940 ~ "D4",
     year< 1940 & year>=1930 ~"D3",
     year<1930 & year >=1920 ~"D2",
     year<1920 & year >= 1909 ~ "D1")) ## creating three new variables, flow2, flow pattern and decade.
print(flow_sample_min_data)
```

    ## # A tibble: 109 × 10
    ## # Groups:   station_id [1]
    ##    station_id  year extreme_type month   day  flow sym   flow2 flow_pattern
    ##    <chr>      <dbl> <chr>        <dbl> <dbl> <dbl> <chr> <dbl> <fct>       
    ##  1 05BB001     1909 minimum         NA    NA NA    <NA>     NA <NA>        
    ##  2 05BB001     1910 minimum         NA    NA NA    <NA>     NA <NA>        
    ##  3 05BB001     1911 minimum          2    27  5.75 <NA>     NA <NA>        
    ##  4 05BB001     1912 minimum          3    14  5.8  <NA>     NA <NA>        
    ##  5 05BB001     1913 minimum          3    18  6.12 B        NA <NA>        
    ##  6 05BB001     1914 minimum         11    17  7.16 <NA>     NA <NA>        
    ##  7 05BB001     1915 minimum          1    27  6.94 <NA>     NA <NA>        
    ##  8 05BB001     1916 minimum          3     2  6.97 B        NA <NA>        
    ##  9 05BB001     1917 minimum          2    23  6.06 B        NA <NA>        
    ## 10 05BB001     1918 minimum          2    20  6.03 B        NA <NA>        
    ## # ℹ 99 more rows
    ## # ℹ 1 more variable: decade <chr>
…
``` r
##The augment function produces model predictions and residuals.

## Model 1

# Use broom's augment() function to extract model augmentation
augment1 <- augment(M1)
print(augment1)
```

    ## # A tibble: 109 × 8
    ##     flow `I(year - 1909)` .fitted .resid   .hat .sigma    .cooksd .std.resid
    ##    <dbl>         <I<dbl>>   <dbl>  <dbl>  <dbl>  <dbl>      <dbl>      <dbl>
    ##  1   314                0    232.  81.7  0.0362   60.6 0.0352         1.37  
    ##  2   230                1    232.  -1.90 0.0352   61.1 0.0000184     -0.0318
    ##  3   264                2    232.  32.5  0.0342   61.0 0.00523        0.543 
    ##  4   174                3    231. -57.1  0.0333   60.8 0.0157        -0.956 
    ##  5   232                4    231.   1.22 0.0323   61.1 0.00000699     0.0205
    ##  6   214                5    230. -16.4  0.0314   61.1 0.00122       -0.274 
    ##  7   236                6    230.   5.97 0.0305   61.1 0.000156       0.0997
    ##  8   309                7    230.  79.3  0.0296   60.6 0.0268         1.32  
    ##  9   174                8    229. -55.3  0.0288   60.9 0.0126        -0.922 
    ## 10   345                9    229. 116.   0.0279   60.0 0.0538         1.94  
    ## # ℹ 99 more rows

``` r
## Model 2

augment2 <-augment(M2)
print(augment2)
```

    ## # A tibble: 107 × 8
    ##     flow `I(year - 1909)` .fitted  .resid   .hat .sigma   .cooksd .std.resid
    ##    <dbl>         <I<dbl>>   <dbl>   <dbl>  <dbl>  <dbl>     <dbl>      <dbl>
    ##  1  5.75                2    5.83 -0.0789 0.0368  0.938 0.000142     -0.0861
    ##  2  5.8                 3    5.84 -0.0373 0.0358  0.938 0.0000308    -0.0407
    ##  3  6.12                4    5.85  0.274  0.0348  0.937 0.00161       0.299 
    ##  4  7.16                5    5.85  1.31   0.0338  0.929 0.0355        1.42  
    ##  5  6.94                6    5.86  1.08   0.0329  0.932 0.0234        1.17  
    ##  6  6.97                7    5.87  1.10   0.0319  0.931 0.0236        1.20  
    ##  7  6.06                8    5.88  0.181  0.0310  0.938 0.000618      0.197 
    ##  8  6.03                9    5.89  0.142  0.0301  0.938 0.000372      0.155 
    ##  9  4.56               10    5.90 -1.34   0.0292  0.928 0.0317       -1.45  
    ## 10  5.69               11    5.90 -0.214  0.0283  0.938 0.000792     -0.233 
    ## # ℹ 97 more rows
…
